tempora:Adv1-0:1,The First,Isaiah 1,Isaiah 2,Isaiah 4:2.
tempora:Adv2-0:1,Second,Isaiah 5,Isaiah 11:1-11,Isaiah 24
tempora:Adv3-0:1,Third,Isaiah 25,Isaiah 26,Isaiah 28:5-19
tempora:Adv4-0:1,Fourth,Isaiah 30:1-27,Isaiah 32,Isaiah 33:2-23
tempora:Nat1-0:2,The First,Isaiah 35,Isaiah 38,Isaiah 40
tempora:Nat2-0:2,Second,Isaiah 42,Isaiah 43,Isaiah 44
tempora:Epi1-0:2,The First,Isaiah 51,52:13 & 53,Isaiah 54
tempora:Epi2-0:2,Second,Isaiah 55,Isaiah 57,Isaiah 61
tempora:Epi3-0:2,Third,Isaiah 62,Isaiah 65,Isaiah 66
tempora:Epi4-0:2,Fourth,Job 27,Job 28,Job 29
tempora:Epi5-0:2,Fifth,Proverbs 1,Proverbs 3,Proverbs 8
tempora:Epi6-0:2,Sixth,Proverbs 9,Proverbs 11,Proverbs 15
tempora:Quadp1-0:2,Septuagesima.,,,
,First Lesson,Genesis 1:1-2:4,Genesis 2:4,Job 38
,Second Lesson,Rev. 21:1-9,Rev. 21:9-22:6,
tempora:Quadp2-0:2,Sexagesima.,Genesis 3,Genesis 6,Genesis 8
tempora:Quadp3-0:2,Quinquagesima,Genesis 9:1-20,Genesis 12,Genesis 13
tempora:Quad1-0:1,First Sunday,Genesis 19:12-30,Genesis 22:1-20,Genesis 23
tempora:Quad2-0:1,Second,Genesis 27:1-41,Genesis 28,Genesis 32
tempora:Quad3-0:1,Third,Genesis 37,Genesis 39,Genesis 40
tempora:Quad4-0:1,Fourth,Genesis 42,Genesis 43,Genesis 45
tempora:Quad5-0:1,Fifth,Exodus 3,Exodus 5,Exodus 6:1-14
tempora:Holy0-0r:1,Sixth,,,
,First Lesson,Exodus 9,Exodus 10,Exodus 11
,Second Lesson,Matt. 26,Luke 19:28,Luke 20:9-21
tempora:Pasc0-0:1,Easter-Day,,,
,First Lesson,Exodus 12:1-29,Exodus 12:29,Exodus 14
,Second Lesson,Rev. 1:10-19,John 20:11-19,Rev. 5
tempora:Pasc1-0:1,The First,,,
,First Lesson,Num. 16:1-36,Num. 16:36,Num. 17:1-12
,Second Lesson,1 Cor. 15:1-29,John 20:24-30,
tempora:Pasc2-0:2,Second,Num. 20:1-14,Num. 20:14-21:10,Num. 21:10
tempora:Pasc3-0r:2,Third,Num. 22,Num. 23,Num. 24
tempora:Pasc4-0:2,Fourth,Deut. 4:1-23,Deut. 4:23-41,Deut. 5
tempora:Pasc5-0:2,Fifth,Num. 6,Num. 9,Num. 10
tempora:Asc6-0:2,Sunday after Ascension-Day.,Num. 30,Num. 34,Joshua 1
tempora:Pent00-0:1,,,,
,First Lesson,Joshua 16-18,Isaiah 11,Ezekiel 36:25
,Second Lesson,Rom. 8:1-18,Gal. 5:16,Acts 18:24-19:21
tempora:Trin01-0r:1,,,,
,First Lesson,Isaiah 6:1-11,Genesis 18,Genesis 1:1-2:4
,Second Lesson,Rev. 1-9,Eph. 4-17,Matt. 3
tempora:Trin02-0r:2,First,Josh. 3:7-4:15,Josh. 5:13-6:21,Joshua 24
tempora:Trin03-0r:2,Second,Judges 4,Judges 5,Judges 6:11
tempora:Trin04-0:2,Third,1 Sam. 2:1-27,1 Samuel 3,1 Sam. 4:1-19
tempora:Trin05-0:2,Fourth,1 Sam. 12,1 Sam. 13,Ruth 1
tempora:Trin06-0:2,Fifth,1 Sam. 15:1-24,1 Sam. 16,1 Sam. 17
tempora:Trin07-0:2,Sixth,2 Samuel 1,2 Samuel 12:1-24,2 Samuel 18
tempora:Trin08-0:2,Seventh,1 Chron. 21,1 Chron. 22,1 Chron. 28:1-21
tempora:Trin09-0:2,Eighth,29:9-29,2 Chron. 1,1 Kings 3
tempora:Trin10-0:2,Ninth,1 Kings 10:1-25,1 Kings 11:1-15,1 Kings 11:26
tempora:Trin11-0:2,Tenth,1 Kings 12,1 Kings 13,1 Kings 17
tempora:Trin12-0:2,Eleventh,1 Kings 18,1 Kings 19,1 Kings 21
tempora:Trin13-0:2,Twelfth,22-41,2 Kings 2:1-16,2 Kings 4:8-38
tempora:Trin14-0:2,Thirteenth,2 Kings 5,2 Kings 6:1-24,2 Kings 7
tempora:Trin15-0:2,Fourteenth,2 Kings 9,2 Kings 10:1-32,2 Kings 13
tempora:Trin16-0:2,Fifteenth,2 Kings 18,2 Kings 19,2 Kings 23:1-31
tempora:Trin17-0:2,Sixteenth,2 Chron. 36,Nehem. 1:1-2:9,Nehem 8
tempora:Trin18-0:2,Seventeenth,Jerem. 5,Jerem. 22,Jerem 35
tempora:Trin19-0:2,Eighteenth,Jerem 36,Ezekiel 2,Ezekiel 13:1-17
tempora:Trin20-0:2,Nineteenth,Ezekiel 14,Ezekiel 18,Ezekiel 24:15
tempora:Trin21-0:2,Twentieth,Ezekiel 34,Ezekiel 37,Daniel 1
tempora:Trin22-0:2,Twenty-first,Daniel 3,Daniel 4,Daniel 5
tempora:Trin23-0:2,Twenty-second,Daniel 6,Daniel 7:9,Daniel 12
tempora:Trin24-0:2,Twenty-third,Hosea 14,Joel 2:1-21,Joel 3:9
tempora:Trin25-0:2,Twenty-fourth,Amos 3,Amos 5,Amos 9
tempora:Trin26-0:2,Twenty-fifth,Micah 4:1-5:8,Micah 6,Micah 7
tempora:Trin27-0:2,Twenty-sixth,Habakkuk 2,Habakkuk 3,Zephaniah 3
tempora:Trin28-0:2,Twenty-seventh,Eccles. 11 & 12,Haggai 2:1-10,Malachi 3 & 4
